{
  "content": [
	{
	  "id": "000001",
	  "version": null,
	  "code": "000001",
	  "dataDate": "2016-06-03",
	  "name": "平安银行",
	  "zuoshou": "1046",
	  "kaipanjia": "1047",
	  "shoupanjia": "1050",
	  "zuigaojia": "1052",
	  "zuidijia": "1041",
	  "zongjine": "44303",
	  "zhangdiezhi": "4",
	  "zhangdiefu": "38",
	  "junjia": "1046",
	  "zongshou": "423389",
	  "weibi": "-1439",
	  "weicha": "-8935",
	  "zhangsu": "-10",
	  "huanshou": "35",
	  "zongguben": "12192650240",
	  "liangbi": "88",
	  "zhenfu": "105"
	},
	{
	  "id": "000002",
	  "version": null,
	  "code": "000002",
	  "dataDate": "2016-06-03",
	  "name": "万科A",
	  "zuoshou": "2443",
	  "kaipanjia": "0",
	  "shoupanjia": "0",
	  "zuigaojia": "0",
	  "zuidijia": "0",
	  "zongjine": "0",
	  "zhangdiezhi": "0",
	  "zhangdiefu": "0",
	  "junjia": "0",
	  "zongshou": "0",
	  "weibi": "0",
	  "weicha": "0",
	  "zhangsu": "0",
	  "huanshou": "0",
	  "zongguben": "9704470528",
	  "liangbi": "0",
	  "zhenfu": "0"
	},
	{
	  "id": "000004",
	  "version": null,
	  "code": "000004",
	  "dataDate": "2016-06-03",
	  "name": "国农科技",
	  "zuoshou": "3683",
	  "kaipanjia": "0",
	  "shoupanjia": "0",
	  "zuigaojia": "0",
	  "zuidijia": "0",
	  "zongjine": "0",
	  "zhangdiezhi": "0",
	  "zhangdiefu": "0",
	  "junjia": "0",
	  "zongshou": "0",
	  "weibi": "0",
	  "weicha": "0",
	  "zhangsu": "0",
	  "huanshou": "0",
	  "zongguben": "82961888",
	  "liangbi": "0",
	  "zhenfu": "0"
	},
	{
	  "id": "000005",
	  "version": null,
	  "code": "000005",
	  "dataDate": "2016-06-03",
	  "name": "世纪星源",
	  "zuoshou": "712",
	  "kaipanjia": "714",
	  "shoupanjia": "712",
	  "zuigaojia": "728",
	  "zuidijia": "708",
	  "zongjine": "16609",
	  "zhangdiezhi": "0",
	  "zhangdiefu": "0",
	  "junjia": "717",
	  "zongshou": "231616",
	  "weibi": "3510",
	  "weicha": "4821",
	  "zhangsu": "0",
	  "huanshou": "252",
	  "zongguben": "913742976",
	  "liangbi": "161",
	  "zhenfu": "281"
	},
	{
	  "id": "000006",
	  "version": null,
	  "code": "000006",
	  "dataDate": "2016-06-03",
	  "name": "深振业A",
	  "zuoshou": "752",
	  "kaipanjia": "753",
	  "shoupanjia": "751",
	  "zuigaojia": "758",
	  "zuidijia": "743",
	  "zongjine": "11951",
	  "zhangdiezhi": "-1",
	  "zhangdiefu": "-13",
	  "junjia": "751",
	  "zongshou": "159036",
	  "weibi": "4440",
	  "weicha": "8448",
	  "zhangsu": "0",
	  "huanshou": "119",
	  "zongguben": "1340266112",
	  "liangbi": "88",
	  "zhenfu": "199"
	},
	{
	  "id": "000007",
	  "version": null,
	  "code": "000007",
	  "dataDate": "2016-06-03",
	  "name": "全新好",
	  "zuoshou": "2379",
	  "kaipanjia": "0",
	  "shoupanjia": "0",
	  "zuigaojia": "0",
	  "zuidijia": "0",
	  "zongjine": "0",
	  "zhangdiezhi": "0",
	  "zhangdiefu": "0",
	  "junjia": "0",
	  "zongshou": "0",
	  "weibi": "0",
	  "weicha": "0",
	  "zhangsu": "0",
	  "huanshou": "0",
	  "zongguben": "205793456",
	  "liangbi": "0",
	  "zhenfu": "0"
	},
	{
	  "id": "000008",
	  "version": null,
	  "code": "000008",
	  "dataDate": "2016-06-03",
	  "name": "神州高铁",
	  "zuoshou": "1155",
	  "kaipanjia": "1150",
	  "shoupanjia": "1151",
	  "zuigaojia": "1164",
	  "zuidijia": "1149",
	  "zongjine": "9021",
	  "zhangdiezhi": "-4",
	  "zhangdiefu": "-35",
	  "junjia": "1153",
	  "zongshou": "78217",
	  "weibi": "1917",
	  "weicha": "1399",
	  "zhangsu": "9",
	  "huanshou": "52",
	  "zongguben": "1497590016",
	  "liangbi": "82",
	  "zhenfu": "130"
	},
	{
	  "id": "000009",
	  "version": null,
	  "code": "000009",
	  "dataDate": "2016-06-03",
	  "name": "中国宝安",
	  "zuoshou": "1317",
	  "kaipanjia": "1329",
	  "shoupanjia": "1320",
	  "zuigaojia": "1359",
	  "zuidijia": "1311",
	  "zongjine": "71963",
	  "zhangdiezhi": "3",
	  "zhangdiefu": "23",
	  "junjia": "1330",
	  "zongshou": "541221",
	  "weibi": "97",
	  "weicha": "131",
	  "zhangsu": "0",
	  "huanshou": "348",
	  "zongguben": "1555159808",
	  "liangbi": "101",
	  "zhenfu": "364"
	},
	{
	  "id": "000010",
	  "version": null,
	  "code": "000010",
	  "dataDate": "2016-06-03",
	  "name": "美丽生态",
	  "zuoshou": "781",
	  "kaipanjia": "784",
	  "shoupanjia": "781",
	  "zuigaojia": "788",
	  "zuidijia": "779",
	  "zongjine": "6581",
	  "zhangdiezhi": "0",
	  "zhangdiefu": "0",
	  "junjia": "783",
	  "zongshou": "84074",
	  "weibi": "463",
	  "weicha": "249",
	  "zhangsu": "0",
	  "huanshou": "206",
	  "zongguben": "407929920",
	  "liangbi": "102",
	  "zhenfu": "114"
	},
	{
	  "id": "000011",
	  "version": null,
	  "code": "000011",
	  "dataDate": "2016-06-03",
	  "name": "深物业A",
	  "zuoshou": "1279",
	  "kaipanjia": "1273",
	  "shoupanjia": "1284",
	  "zuigaojia": "1300",
	  "zuidijia": "1273",
	  "zongjine": "9808",
	  "zhangdiezhi": "5",
	  "zhangdiefu": "39",
	  "junjia": "1288",
	  "zongshou": "76131",
	  "weibi": "491",
	  "weicha": "185",
	  "zhangsu": "-8",
	  "huanshou": "433",
	  "zongguben": "175862624",
	  "liangbi": "93",
	  "zhenfu": "211"
	},
	{
	  "id": "000012",
	  "version": null,
	  "code": "000012",
	  "dataDate": "2016-06-03",
	  "name": "南玻A",
	  "zuoshou": "1190",
	  "kaipanjia": "1170",
	  "shoupanjia": "1172",
	  "zuigaojia": "1184",
	  "zuidijia": "1155",
	  "zongjine": "39196",
	  "zhangdiezhi": "-18",
	  "zhangdiefu": "-151",
	  "junjia": "1169",
	  "zongshou": "335392",
	  "weibi": "-1784",
	  "weicha": "-1497",
	  "zhangsu": "17",
	  "huanshou": "257",
	  "zongguben": "1304071936",
	  "liangbi": "109",
	  "zhenfu": "244"
	},
	{
	  "id": "000014",
	  "version": null,
	  "code": "000014",
	  "dataDate": "2016-06-03",
	  "name": "沙河股份",
	  "zuoshou": "1861",
	  "kaipanjia": "1854",
	  "shoupanjia": "1860",
	  "zuigaojia": "1872",
	  "zuidijia": "1838",
	  "zongjine": "9605",
	  "zhangdiezhi": "-1",
	  "zhangdiefu": "-5",
	  "junjia": "1857",
	  "zongshou": "51735",
	  "weibi": "-1423",
	  "weicha": "-79",
	  "zhangsu": "0",
	  "huanshou": "256",
	  "zongguben": "201705184",
	  "liangbi": "90",
	  "zhenfu": "183"
	},
	{
	  "id": "000016",
	  "version": null,
	  "code": "000016",
	  "dataDate": "2016-06-03",
	  "name": "深康佳A",
	  "zuoshou": "494",
	  "kaipanjia": "489",
	  "shoupanjia": "489",
	  "zuigaojia": "494",
	  "zuidijia": "483",
	  "zongjine": "17512",
	  "zhangdiezhi": "-5",
	  "zhangdiefu": "-101",
	  "junjia": "488",
	  "zongshou": "359058",
	  "weibi": "-3585",
	  "weicha": "-12216",
	  "zhangsu": "20",
	  "huanshou": "225",
	  "zongguben": "1596593792",
	  "liangbi": "64",
	  "zhenfu": "223"
	},
	{
	  "id": "000017",
	  "version": null,
	  "code": "000017",
	  "dataDate": "2016-06-03",
	  "name": "深中华A",
	  "zuoshou": "1069",
	  "kaipanjia": "1069",
	  "shoupanjia": "1067",
	  "zuigaojia": "1076",
	  "zuidijia": "1057",
	  "zongjine": "7090",
	  "zhangdiezhi": "-2",
	  "zhangdiefu": "-19",
	  "junjia": "1065",
	  "zongshou": "66589",
	  "weibi": "1798",
	  "weicha": "1307",
	  "zhangsu": "9",
	  "huanshou": "220",
	  "zongguben": "302978752",
	  "liangbi": "98",
	  "zhenfu": "178"
	},
	{
	  "id": "000018",
	  "version": null,
	  "code": "000018",
	  "dataDate": "2016-06-03",
	  "name": "神州长城",
	  "zuoshou": "4905",
	  "kaipanjia": "4819",
	  "shoupanjia": "4670",
	  "zuigaojia": "4819",
	  "zuidijia": "4651",
	  "zongjine": "65487",
	  "zhangdiezhi": "-235",
	  "zhangdiefu": "-479",
	  "junjia": "4706",
	  "zongshou": "139153",
	  "weibi": "2919",
	  "weicha": "476",
	  "zhangsu": "-4",
	  "huanshou": "1398",
	  "zongguben": "99515704",
	  "liangbi": "168",
	  "zhenfu": "343"
	},
	{
	  "id": "000019",
	  "version": null,
	  "code": "000019",
	  "dataDate": "2016-06-03",
	  "name": "深深宝A",
	  "zuoshou": "1718",
	  "kaipanjia": "1745",
	  "shoupanjia": "1714",
	  "zuigaojia": "1790",
	  "zuidijia": "1701",
	  "zongjine": "44831",
	  "zhangdiezhi": "-4",
	  "zhangdiefu": "-23",
	  "junjia": "1743",
	  "zongshou": "257261",
	  "weibi": "-2511",
	  "weicha": "-1666",
	  "zhangsu": "12",
	  "huanshou": "1019",
	  "zongguben": "252101536",
	  "liangbi": "123",
	  "zhenfu": "518"
	},
	{
	  "id": "000020",
	  "version": null,
	  "code": "000020",
	  "dataDate": "2016-06-03",
	  "name": "深华发A",
	  "zuoshou": "2050",
	  "kaipanjia": "2031",
	  "shoupanjia": "2046",
	  "zuigaojia": "2055",
	  "zuidijia": "2018",
	  "zongjine": "7663",
	  "zhangdiezhi": "-4",
	  "zhangdiefu": "-20",
	  "junjia": "2036",
	  "zongshou": "37631",
	  "weibi": "-2327",
	  "weicha": "-305",
	  "zhangsu": "5",
	  "huanshou": "208",
	  "zongguben": "181165392",
	  "liangbi": "99",
	  "zhenfu": "180"
	},
	{
	  "id": "000021",
	  "version": null,
	  "code": "000021",
	  "dataDate": "2016-06-03",
	  "name": "深科技",
	  "zuoshou": "898",
	  "kaipanjia": "891",
	  "shoupanjia": "888",
	  "zuigaojia": "898",
	  "zuidijia": "882",
	  "zongjine": "22090",
	  "zhangdiezhi": "-10",
	  "zhangdiefu": "-111",
	  "junjia": "889",
	  "zongshou": "248494",
	  "weibi": "-3029",
	  "weicha": "-2579",
	  "zhangsu": "-22",
	  "huanshou": "169",
	  "zongguben": "1469814400",
	  "liangbi": "95",
	  "zhenfu": "178"
	},
	{
	  "id": "000022",
	  "version": null,
	  "code": "000022",
	  "dataDate": "2016-06-03",
	  "name": "深赤湾A",
	  "zuoshou": "1560",
	  "kaipanjia": "1565",
	  "shoupanjia": "1562",
	  "zuigaojia": "1567",
	  "zuidijia": "1544",
	  "zongjine": "3219",
	  "zhangdiezhi": "2",
	  "zhangdiefu": "13",
	  "junjia": "1558",
	  "zongshou": "20666",
	  "weibi": "-1069",
	  "weicha": "-125",
	  "zhangsu": "6",
	  "huanshou": "44",
	  "zongguben": "464867008",
	  "liangbi": "72",
	  "zhenfu": "147"
	},
	{
	  "id": "000023",
	  "version": null,
	  "code": "000023",
	  "dataDate": "2016-06-03",
	  "name": "深天地A",
	  "zuoshou": "3055",
	  "kaipanjia": "3086",
	  "shoupanjia": "3195",
	  "zuigaojia": "3280",
	  "zuidijia": "3033",
	  "zongjine": "26083",
	  "zhangdiezhi": "140",
	  "zhangdiefu": "458",
	  "junjia": "3181",
	  "zongshou": "82001",
	  "weibi": "5478",
	  "weicha": "751",
	  "zhangsu": "-3",
	  "huanshou": "591",
	  "zongguben": "138756240",
	  "liangbi": "194",
	  "zhenfu": "809"
	},
	{
	  "id": "000025",
	  "version": null,
	  "code": "000025",
	  "dataDate": "2016-06-03",
	  "name": "特力A",
	  "zuoshou": "5746",
	  "kaipanjia": "5740",
	  "shoupanjia": "5883",
	  "zuigaojia": "6000",
	  "zuidijia": "5730",
	  "zongjine": "50245",
	  "zhangdiezhi": "137",
	  "zhangdiefu": "238",
	  "junjia": "5857",
	  "zongshou": "85786",
	  "weibi": "-2885",
	  "weicha": "-408",
	  "zhangsu": "2",
	  "huanshou": "478",
	  "zongguben": "179294544",
	  "liangbi": "186",
	  "zhenfu": "470"
	},
	{
	  "id": "000026",
	  "version": null,
	  "code": "000026",
	  "dataDate": "2016-06-03",
	  "name": "飞亚达A",
	  "zuoshou": "1100",
	  "kaipanjia": "1099",
	  "shoupanjia": "1100",
	  "zuigaojia": "1111",
	  "zuidijia": "1089",
	  "zongjine": "4702",
	  "zhangdiezhi": "0",
	  "zhangdiefu": "0",
	  "junjia": "1099",
	  "zongshou": "42808",
	  "weibi": "-1240",
	  "weicha": "-281",
	  "zhangsu": "-18",
	  "huanshou": "138",
	  "zongguben": "311070144",
	  "liangbi": "97",
	  "zhenfu": "200"
	},
	{
	  "id": "000027",
	  "version": null,
	  "code": "000027",
	  "dataDate": "2016-06-03",
	  "name": "深圳能源",
	  "zuoshou": "650",
	  "kaipanjia": "650",
	  "shoupanjia": "658",
	  "zuigaojia": "659",
	  "zuidijia": "648",
	  "zongjine": "7599",
	  "zhangdiezhi": "8",
	  "zhangdiefu": "123",
	  "junjia": "656",
	  "zongshou": "115876",
	  "weibi": "-2738",
	  "weicha": "-5929",
	  "zhangsu": "15",
	  "huanshou": "28",
	  "zongguben": "3964491520",
	  "liangbi": "132",
	  "zhenfu": "169"
	},
	{
	  "id": "000028",
	  "version": null,
	  "code": "000028",
	  "dataDate": "2016-06-03",
	  "name": "国药一致",
	  "zuoshou": "6278",
	  "kaipanjia": "6279",
	  "shoupanjia": "6376",
	  "zuigaojia": "6395",
	  "zuidijia": "6255",
	  "zongjine": "15261",
	  "zhangdiezhi": "98",
	  "zhangdiefu": "156",
	  "junjia": "6335",
	  "zongshou": "24089",
	  "weibi": "2169",
	  "weicha": "137",
	  "zhangsu": "-5",
	  "huanshou": "103",
	  "zongguben": "233261808",
	  "liangbi": "97",
	  "zhenfu": "223"
	},
	{
	  "id": "000029",
	  "version": null,
	  "code": "000029",
	  "dataDate": "2016-06-03",
	  "name": "深深房A",
	  "zuoshou": "1030",
	  "kaipanjia": "1037",
	  "shoupanjia": "1048",
	  "zuigaojia": "1058",
	  "zuidijia": "1031",
	  "zongjine": "12252",
	  "zhangdiezhi": "18",
	  "zhangdiefu": "175",
	  "junjia": "1046",
	  "zongshou": "117121",
	  "weibi": "-2212",
	  "weicha": "-1030",
	  "zhangsu": "10",
	  "huanshou": "131",
	  "zongguben": "891660032",
	  "liangbi": "123",
	  "zhenfu": "262"
	}
  ],
  "last": false,
  "totalElements": 2854,
  "totalPages": 115,
  "size": 25,
  "number": 0,
  "sort": [
	{
	  "direction": "ASC",
	  "property": "code",
	  "ignoreCase": false,
	  "nullHandling": "NATIVE",
	  "ascending": true
	}
  ],
  "numberOfElements": 25,
  "first": true
}
